…
# Top 5 average speeds of Tour de France winners
editions %>%
  mutate(speed = distance / time_overall) %>%
  select(start_date, winner_name, speed) %>%
  arrange(desc(speed)) %>%
  print(n = 2)

## # A tibble: 106 x 3
##   start_date winner_name     speed
##   <date>     <chr>           <dbl>
## 1 1998-07-11 Marco Pantani    41.7
## 2 2005-07-02 Lance Armstrong  41.7
## # … with 104 more rows
…
